HMHid,MDid,UPid,value,dateTime
1,1,1,93,2014-8-15 15:5:32
2,1,2,73,2014-9-12 4:5:50
3,1,3,63,2014-1-24 15:8:24
4,1,4,99,2012-6-17 22:57:22
5,1,5,100,2010-11-10 4:30:37
6,1,6,101,2013-10-13 6:29:8
7,1,7,53,2011-12-11 8:0:49
8,1,8,100,2014-9-13 23:48:13
9,1,9,109,2012-1-27 11:51:42
10,1,10,81,2010-2-19 13:21:51
11,1,11,55,2012-12-21 19:7:24
12,1,12,87,2010-7-2 21:10:38
13,1,13,71,2013-10-21 20:27:59
14,1,14,110,2012-2-25 20:43:33
15,1,15,97,2011-1-16 10:16:24
16,1,16,110,2014-12-1 7:10:30
17,1,17,78,2014-7-22 10:37:11
18,1,18,109,2010-7-20 8:41:2
19,1,19,93,2012-9-26 21:3:54
20,1,20,79,2010-11-6 22:19:20
21,1,21,96,2012-7-1 13:22:26
22,1,22,69,2013-4-27 11:7:36
23,1,23,62,2012-1-24 9:2:45
24,1,24,86,2011-6-6 6:58:18
25,1,25,86,2014-1-26 8:52:42
26,1,26,56,2011-10-18 14:5:24
27,1,27,50,2011-11-21 15:43:15
28,1,28,93,2013-3-25 1:18:4
29,1,29,89,2011-9-13 15:34:54
30,1,30,104,2011-7-7 9:44:53
31,1,31,52,2011-1-4 20:16:40
32,1,32,82,2010-2-4 12:24:25
33,1,33,55,2010-11-19 10:43:13
34,1,34,65,2013-2-10 15:16:57
35,1,35,88,2010-10-8 5:1:33
36,1,36,53,2012-8-14 4:28:19
37,1,37,100,2012-4-23 3:38:1
38,1,38,79,2013-12-4 6:30:55
39,1,39,77,2014-1-4 12:2:51
40,1,40,74,2014-1-27 0:43:37
41,1,41,76,2012-9-19 4:22:48
42,1,42,57,2010-3-4 13:28:34
43,1,43,86,2013-11-17 1:45:1
44,1,44,74,2014-6-18 19:16:29
45,1,45,72,2014-9-22 23:30:51
46,1,46,61,2014-6-10 7:12:38
47,1,47,105,2013-8-6 0:55:19
48,1,48,108,2012-8-23 1:33:35
49,1,49,109,2012-8-15 8:3:42
50,1,50,59,2014-1-23 15:39:35
51,1,51,68,2011-2-11 7:26:54
52,1,52,80,2011-5-23 11:38:14
53,1,53,99,2011-12-26 13:4:45
54,1,54,84,2013-6-17 4:26:13
55,1,55,55,2012-3-14 21:23:38
56,1,56,103,2011-12-24 7:18:7
57,1,57,90,2011-9-13 8:41:35
58,1,58,93,2014-2-8 5:47:23
59,1,59,105,2011-5-14 16:37:55
60,1,60,53,2011-1-27 11:0:21
61,1,61,87,2013-6-1 23:43:17
62,1,62,97,2014-2-21 17:35:50
63,1,63,70,2010-11-22 17:26:8
64,1,64,63,2010-11-11 14:25:47
65,1,65,93,2014-4-1 5:10:50
66,1,66,100,2013-2-27 12:12:54
67,1,67,104,2010-6-26 0:17:12
68,1,68,85,2010-9-26 5:5:13
69,1,69,61,2013-3-16 5:52:38
70,1,70,60,2012-11-26 12:24:46
71,1,71,51,2011-2-16 23:35:5
72,1,72,67,2014-3-2 0:59:20
73,1,73,56,2011-4-14 14:50:23
74,1,74,77,2013-1-18 19:16:34
75,1,75,58,2013-3-2 6:45:2
76,1,76,97,2012-5-27 7:2:10
77,1,77,102,2010-7-24 6:39:6
78,1,78,78,2013-6-25 10:30:28
79,1,79,86,2010-4-15 10:31:22
80,1,80,83,2012-11-5 17:1:10
81,1,81,60,2013-3-1 17:37:2
82,1,82,98,2013-6-23 12:48:9
83,1,83,81,2013-4-18 15:41:40
84,1,84,93,2012-5-10 5:40:23
85,1,85,74,2013-1-17 2:48:4
86,1,86,91,2014-11-2 15:58:38
87,1,87,98,2011-8-27 23:7:1
88,1,88,60,2014-5-27 1:53:32
89,1,89,70,2014-11-2 1:23:51
90,1,90,56,2011-8-13 18:12:50
91,1,91,59,2011-3-22 5:49:27
92,1,92,85,2010-12-2 17:26:44
93,1,93,106,2012-12-9 9:35:24
94,1,94,67,2013-10-18 8:17:39
95,1,95,60,2014-12-18 7:25:58
96,1,96,102,2012-12-15 1:40:37
97,1,97,51,2014-3-26 18:58:6
98,1,98,83,2013-10-4 10:7:0
99,1,99,101,2014-8-5 10:34:15
100,1,100,53,2014-3-2 22:23:28
101,1,101,77,2010-3-11 1:23:3
102,1,102,79,2012-7-19 1:18:21
103,1,103,74,2010-4-14 15:59:30
104,1,104,84,2010-11-11 7:49:19
105,1,105,104,2012-10-5 1:52:54
106,1,106,66,2011-3-21 11:40:48
107,1,107,58,2010-4-25 10:48:33
108,1,108,72,2012-11-4 12:51:40
109,1,109,54,2012-10-19 2:14:59
110,1,110,105,2010-4-7 15:49:5
111,1,111,66,2012-9-19 4:42:45
112,1,112,56,2013-5-24 6:6:21
113,1,113,62,2010-11-17 3:23:13
114,1,114,110,2013-5-14 10:52:1
115,1,115,88,2010-4-26 22:37:36
116,1,116,53,2010-1-8 11:23:52
117,1,117,61,2011-11-11 2:52:53
118,1,118,97,2013-3-19 18:9:28
119,1,119,53,2014-11-20 6:23:16
120,1,120,107,2010-5-21 22:29:29
121,1,121,100,2012-5-3 20:43:57
122,1,122,96,2012-4-16 6:7:0
123,1,123,98,2013-4-14 10:37:46
124,1,124,68,2011-10-1 20:34:38
125,1,125,81,2013-11-17 21:7:21
126,1,126,52,2011-10-13 20:49:28
127,1,127,56,2014-8-22 21:14:27
128,1,128,63,2013-6-1 5:17:50
129,1,129,92,2010-4-26 7:45:23
130,1,130,86,2010-8-2 1:29:2
131,1,131,73,2014-3-2 21:44:6
132,1,132,61,2012-7-7 13:44:37
133,1,133,81,2010-2-19 4:32:59
134,1,134,93,2012-10-27 11:9:24
135,1,135,75,2014-6-2 5:47:0
136,1,136,105,2011-7-24 17:18:39
137,1,137,65,2013-1-7 3:15:33
138,1,138,60,2013-9-26 16:53:55
139,1,139,74,2010-11-5 7:43:7
140,1,140,109,2013-6-6 23:52:39
141,1,141,62,2012-3-23 16:40:10
142,1,142,97,2011-6-23 15:42:31
143,1,143,69,2010-1-12 1:41:24
144,1,144,59,2010-3-13 19:48:18
145,1,145,66,2011-2-28 16:53:52
146,1,146,82,2013-4-8 8:47:28
147,1,147,76,2010-4-5 15:44:1
148,1,148,90,2014-7-22 2:1:57
149,1,149,68,2014-11-15 13:40:34
150,1,150,54,2011-10-2 22:17:25
151,1,151,107,2011-4-21 16:47:34
152,1,152,75,2011-12-3 19:21:3
153,1,153,67,2014-12-23 16:48:23
154,1,154,72,2010-3-12 13:51:49
155,1,155,68,2010-6-6 9:34:21
156,1,156,50,2013-11-23 2:42:0
157,1,157,82,2012-5-23 2:10:35
158,1,158,101,2014-5-16 11:31:44
159,1,159,73,2011-7-14 3:12:50
160,1,160,105,2011-7-15 9:4:14
161,1,161,88,2010-7-10 0:30:16
162,1,162,77,2011-10-1 9:43:58
163,1,163,58,2014-8-16 23:13:3
164,1,164,52,2013-1-22 5:26:4
165,1,165,110,2012-4-10 5:50:18
166,1,166,74,2014-1-22 7:30:37
167,1,167,83,2012-12-26 6:19:30
168,1,168,55,2013-9-5 2:25:11
169,1,169,73,2013-7-22 18:41:3
170,1,170,103,2011-5-24 21:3:38
171,1,171,70,2012-9-22 20:28:49
172,1,172,100,2012-11-21 3:32:42
173,1,173,55,2012-6-26 15:52:50
174,1,174,88,2011-2-26 0:45:2
175,1,175,93,2014-1-9 20:14:52
176,1,176,54,2013-2-22 10:20:14
177,1,177,54,2012-12-17 18:49:41
178,1,178,98,2014-4-1 7:19:37
179,1,179,92,2011-7-6 23:10:27
180,1,180,109,2014-6-19 2:23:44
181,1,181,66,2014-5-3 1:5:50
182,1,182,63,2010-10-16 11:18:54
183,1,183,95,2012-4-23 19:52:39
184,1,184,96,2010-5-14 8:28:1
185,1,185,58,2012-5-24 1:44:58
186,1,186,56,2014-6-4 6:1:40
187,1,187,100,2010-5-28 1:8:0
188,1,188,80,2014-1-23 7:7:17
189,1,189,68,2013-8-26 20:40:21
190,1,190,56,2011-10-7 9:24:47
191,1,191,76,2014-4-22 15:3:58
192,1,192,78,2013-9-7 7:42:10
193,1,193,65,2010-7-28 12:4:9
194,1,194,77,2010-6-18 19:55:51
195,1,195,94,2013-8-8 8:43:54
196,1,196,102,2011-6-24 22:45:30
197,1,197,99,2014-11-13 16:28:13
198,1,198,90,2013-5-4 23:2:6
199,1,199,108,2012-8-17 22:28:56
200,1,200,88,2013-9-5 15:21:43
201,1,201,95,2010-10-6 11:18:6
202,1,202,58,2012-12-24 0:57:15
203,1,203,87,2010-5-11 14:45:48
204,1,204,105,2012-9-19 20:30:11
205,1,205,99,2013-1-25 22:18:56
206,1,206,98,2014-8-3 18:28:30
207,1,207,104,2010-9-8 7:53:26
208,1,208,63,2011-1-24 14:57:27
209,1,209,90,2011-1-5 1:44:18
210,1,210,54,2013-3-7 7:17:12
211,1,211,98,2013-3-16 4:18:35
212,1,212,50,2012-7-5 14:56:55
213,1,213,92,2011-6-11 22:43:4
214,1,214,78,2010-9-12 22:53:49
215,1,215,73,2014-6-6 9:38:48
216,1,216,77,2012-7-13 9:38:42
217,1,217,96,2010-4-18 15:35:53
218,1,218,101,2013-7-22 11:53:23
219,1,219,85,2011-1-11 14:6:10
220,1,220,56,2011-10-21 7:7:20
221,1,221,61,2012-4-21 17:16:55
222,1,222,73,2014-9-23 1:57:25
223,1,223,86,2011-11-21 3:17:42
224,1,224,84,2013-4-7 22:36:20
225,1,225,60,2010-10-19 3:16:5
226,1,226,103,2012-10-15 7:8:34
227,1,227,58,2011-8-5 14:29:28
228,1,228,95,2013-9-17 16:28:23
229,1,229,76,2013-5-27 22:1:3
230,1,230,107,2013-7-23 17:41:36
231,1,231,62,2012-6-15 20:15:14
232,1,232,74,2012-11-16 6:51:51
233,1,233,72,2012-8-17 13:19:31
234,1,234,61,2012-11-10 18:13:50
235,1,235,88,2012-9-7 5:48:33
236,1,236,83,2014-8-24 23:47:57
237,1,237,54,2010-5-8 1:15:2
238,1,238,100,2014-4-15 17:44:42
239,1,239,52,2014-3-19 22:39:17
240,1,240,98,2013-6-20 15:31:53
241,1,241,70,2014-11-22 17:48:2
242,1,242,101,2010-7-19 2:6:50
243,1,243,85,2014-7-20 14:30:51
244,1,244,76,2010-2-10 16:25:41
245,1,245,95,2012-2-24 21:6:4
246,1,246,60,2012-2-13 1:16:1
247,1,247,79,2010-1-26 15:0:13
248,1,248,78,2013-1-10 2:16:3
249,1,249,68,2011-10-17 12:50:57
250,1,250,78,2014-4-7 22:20:38
251,1,251,86,2012-4-15 10:12:22
252,1,252,59,2011-10-28 12:30:8
253,1,253,101,2013-12-1 15:37:19
254,1,254,70,2014-10-17 12:18:15
255,1,255,87,2013-3-28 20:0:6
256,1,256,98,2013-5-12 4:10:41
257,1,257,64,2010-9-6 6:52:21
258,1,258,51,2013-2-10 6:22:43
259,1,259,81,2014-2-25 13:35:13
260,1,260,73,2013-12-11 4:18:22
261,1,261,50,2010-1-7 9:53:30
262,1,262,71,2011-9-13 9:10:55
263,1,263,63,2010-1-12 0:52:58
264,1,264,79,2014-11-19 3:53:51
265,1,265,58,2011-10-18 18:3:24
266,1,266,95,2014-10-21 18:3:56
267,1,267,80,2012-6-1 20:36:3
268,1,268,55,2014-1-17 1:10:48
269,1,269,53,2012-7-9 11:45:4
270,1,270,85,2013-2-6 7:49:19
271,1,271,76,2012-12-15 6:56:57
272,1,272,59,2011-8-1 20:8:44
273,1,273,99,2010-11-28 4:19:3
274,1,274,85,2011-2-4 16:52:57
275,1,275,64,2013-7-6 6:48:50
276,1,276,81,2011-11-17 1:21:13
277,1,277,104,2013-10-3 22:12:34
278,1,278,74,2011-11-10 1:18:31
279,1,279,100,2011-11-4 12:24:3
280,1,280,95,2014-10-22 16:41:45
281,1,281,80,2012-5-18 23:5:12
282,1,282,65,2011-5-2 23:19:41
283,1,283,52,2010-1-10 10:45:33
284,1,284,109,2013-6-11 1:13:4
285,1,285,85,2010-4-16 2:28:59
286,1,286,81,2014-1-5 3:2:27
287,1,287,102,2010-4-22 8:56:44
288,1,288,101,2012-7-16 3:58:1
289,1,289,109,2010-2-14 16:8:36
290,1,290,110,2011-8-23 6:9:21
291,1,291,83,2010-11-14 4:33:54
292,1,292,107,2012-1-2 22:32:39
293,1,293,50,2010-3-17 21:46:29
294,1,294,98,2011-3-26 9:49:58
295,1,295,91,2014-1-22 8:6:52
296,1,296,74,2010-5-14 15:27:8
297,1,297,64,2012-5-28 11:9:12
298,1,298,77,2012-8-3 2:58:13
299,1,299,99,2011-5-16 10:28:54
300,1,300,89,2010-10-22 5:41:35
301,2,1,174,2012-8-13 16:1:6
302,2,2,140,2010-2-13 6:26:29
303,2,3,152,2014-2-25 7:54:0
304,2,4,136,2013-12-28 12:52:35
305,2,5,144,2011-3-3 15:14:4
306,2,6,137,2011-11-23 23:56:10
307,2,7,122,2010-7-2 17:5:8
308,2,8,157,2010-12-21 1:37:17
309,2,9,132,2010-1-14 13:21:31
310,2,10,166,2010-11-1 23:30:48
311,2,11,182,2013-3-10 17:12:55
312,2,12,147,2011-9-12 7:26:46
313,2,13,140,2012-10-5 2:28:48
314,2,14,158,2011-11-11 20:57:11
315,2,15,135,2013-8-13 5:16:16
316,2,16,175,2012-12-11 7:30:1
317,2,17,180,2012-8-2 8:28:1
318,2,18,101,2012-10-14 7:32:15
319,2,19,147,2011-11-15 19:40:58
320,2,20,175,2013-12-26 4:35:49
321,2,21,104,2011-11-10 11:14:59
322,2,22,162,2014-1-23 17:59:55
323,2,23,152,2010-4-20 16:14:15
324,2,24,199,2011-9-25 10:58:52
325,2,25,168,2012-1-21 23:57:33
326,2,26,200,2013-1-18 16:47:39
327,2,27,141,2013-2-27 6:55:47
328,2,28,134,2010-6-4 13:54:19
329,2,29,108,2013-5-18 23:24:45
330,2,30,168,2012-12-6 10:2:38
331,2,31,124,2013-4-16 9:13:54
332,2,32,115,2011-12-6 12:3:57
333,2,33,170,2014-4-8 13:32:39
334,2,34,127,2010-12-8 16:52:26
335,2,35,153,2011-9-16 1:17:10
336,2,36,193,2011-7-21 17:34:6
337,2,37,168,2013-1-7 21:57:41
338,2,38,155,2012-12-26 21:10:5
339,2,39,101,2012-11-15 1:25:30
340,2,40,116,2011-2-24 17:43:35
341,2,41,155,2010-1-8 20:38:57
342,2,42,181,2013-7-28 5:36:35
343,2,43,192,2012-11-27 1:1:40
344,2,44,136,2010-12-2 14:36:36
345,2,45,144,2011-1-23 8:27:39
346,2,46,123,2010-7-17 14:1:18
347,2,47,153,2012-7-17 22:9:10
348,2,48,140,2010-1-9 10:43:37
349,2,49,189,2011-11-16 16:24:18
350,2,50,121,2010-6-19 14:23:40
351,2,51,179,2011-9-21 7:10:54
352,2,52,160,2013-6-28 13:54:40
353,2,53,113,2013-6-2 14:14:50
354,2,54,141,2012-12-5 1:54:48
355,2,55,130,2010-1-21 19:58:10
356,2,56,122,2012-5-25 13:49:33
357,2,57,179,2013-12-10 12:30:31
358,2,58,139,2012-5-11 21:59:3
359,2,59,141,2014-8-27 19:53:47
360,2,60,198,2014-5-24 6:46:23
361,2,61,144,2012-6-11 18:47:57
362,2,62,156,2013-2-7 23:5:9
363,2,63,172,2011-3-9 9:57:21
364,2,64,194,2014-1-4 16:47:17
365,2,65,120,2013-11-20 2:31:21
366,2,66,165,2014-12-9 6:40:0
367,2,67,196,2014-2-13 15:46:38
368,2,68,117,2010-5-28 11:24:36
369,2,69,111,2010-3-9 8:42:52
370,2,70,167,2011-9-18 19:16:2
371,2,71,110,2013-5-1 10:7:27
372,2,72,137,2010-1-6 1:40:4
373,2,73,112,2012-2-19 8:13:12
374,2,74,105,2011-1-18 12:26:2
375,2,75,183,2014-5-2 10:58:40
376,2,76,178,2010-2-25 18:31:19
377,2,77,160,2011-3-26 7:8:39
378,2,78,186,2013-3-17 8:22:12
379,2,79,112,2014-6-14 16:26:38
380,2,80,162,2013-11-17 11:11:38
381,2,81,105,2014-12-8 11:28:42
382,2,82,160,2013-12-26 21:25:42
383,2,83,139,2014-9-7 0:55:31
384,2,84,139,2014-12-6 16:41:7
385,2,85,106,2014-5-7 10:30:1
386,2,86,150,2013-6-5 18:58:48
387,2,87,163,2012-11-24 6:53:54
388,2,88,127,2010-6-8 5:16:19
389,2,89,163,2013-1-13 14:6:46
390,2,90,146,2013-12-6 18:7:54
391,2,91,186,2012-3-5 16:6:16
392,2,92,120,2014-4-1 16:48:47
393,2,93,128,2012-9-25 17:25:24
394,2,94,118,2014-12-18 18:15:47
395,2,95,157,2011-1-5 17:42:47
396,2,96,143,2012-3-28 8:15:39
397,2,97,197,2013-1-16 0:0:55
398,2,98,195,2013-12-9 7:33:4
399,2,99,183,2013-4-28 13:16:43
400,2,100,115,2012-4-12 4:45:9
401,2,101,147,2012-3-21 1:57:40
402,2,102,133,2010-3-18 13:5:13
403,2,103,116,2011-3-4 3:4:50
404,2,104,175,2012-2-20 9:58:13
405,2,105,158,2010-2-9 18:51:52
406,2,106,182,2013-10-21 10:24:59
407,2,107,175,2011-1-15 12:1:34
408,2,108,121,2010-7-5 2:32:6
409,2,109,105,2010-10-28 11:54:17
410,2,110,190,2011-12-2 23:59:21
411,2,111,182,2011-5-4 13:3:10
412,2,112,178,2013-10-22 22:40:42
413,2,113,152,2011-1-20 1:39:19
414,2,114,177,2013-3-17 21:46:22
415,2,115,175,2013-9-21 13:41:48
416,2,116,185,2014-8-21 2:31:20
417,2,117,111,2012-2-21 20:43:21
418,2,118,115,2013-6-10 8:0:28
419,2,119,160,2013-6-13 20:56:26
420,2,120,168,2012-12-8 22:3:58
421,2,121,140,2011-3-23 19:12:54
422,2,122,132,2011-4-20 18:32:12
423,2,123,101,2013-7-26 8:30:17
424,2,124,163,2012-6-20 8:50:25
425,2,125,161,2010-10-11 19:5:1
426,2,126,134,2012-6-9 18:48:39
427,2,127,140,2013-7-27 9:29:18
428,2,128,142,2013-7-7 21:47:10
429,2,129,138,2010-11-18 19:46:4
430,2,130,195,2013-11-14 0:52:44
431,2,131,184,2013-6-25 21:4:16
432,2,132,132,2011-2-2 5:26:36
433,2,133,154,2011-10-23 23:29:30
434,2,134,184,2012-8-8 22:12:44
435,2,135,158,2014-1-19 23:9:7
436,2,136,183,2010-4-2 1:22:8
437,2,137,160,2010-9-21 21:26:43
438,2,138,171,2011-10-12 0:47:32
439,2,139,180,2013-2-6 23:38:20
440,2,140,154,2013-5-14 17:54:52
441,2,141,120,2010-2-27 20:45:23
442,2,142,154,2011-10-24 11:13:50
443,2,143,107,2013-9-11 2:0:12
444,2,144,179,2012-1-14 9:27:18
445,2,145,133,2010-6-28 5:24:35
446,2,146,196,2010-8-4 21:42:33
447,2,147,134,2010-9-7 4:58:6
448,2,148,101,2010-3-17 10:3:7
449,2,149,137,2012-12-24 12:21:23
450,2,150,169,2011-3-5 15:1:23
451,2,151,162,2012-2-19 1:7:9
452,2,152,174,2011-9-27 11:5:26
453,2,153,107,2011-9-3 4:26:21
454,2,154,171,2014-4-2 23:19:14
455,2,155,109,2011-7-5 6:15:21
456,2,156,181,2011-11-28 11:27:32
457,2,157,103,2010-4-28 1:57:3
458,2,158,168,2010-6-2 5:39:33
459,2,159,102,2010-11-24 17:57:1
460,2,160,139,2010-2-2 21:13:38
461,2,161,198,2013-1-13 18:59:40
462,2,162,184,2012-1-11 11:40:38
463,2,163,110,2012-9-4 16:23:5
464,2,164,106,2014-1-25 9:20:35
465,2,165,124,2012-2-13 5:2:12
466,2,166,158,2011-1-8 10:28:44
467,2,167,163,2012-11-8 15:16:23
468,2,168,124,2012-10-17 11:21:59
469,2,169,182,2014-10-26 15:28:29
470,2,170,193,2010-12-1 18:8:20
471,2,171,143,2011-7-25 15:38:21
472,2,172,128,2010-9-5 1:42:41
473,2,173,171,2011-6-10 5:33:11
474,2,174,186,2013-9-26 19:3:0
475,2,175,197,2014-8-24 12:54:52
476,2,176,163,2011-3-1 16:0:41
477,2,177,131,2013-11-9 22:6:8
478,2,178,101,2010-11-23 7:41:13
479,2,179,113,2013-9-21 7:28:5
480,2,180,165,2010-1-20 14:58:31
481,2,181,110,2012-12-25 0:21:41
482,2,182,108,2013-1-19 19:53:12
483,2,183,183,2011-11-19 0:15:27
484,2,184,134,2011-7-7 18:29:8
485,2,185,153,2013-1-12 23:52:58
486,2,186,151,2012-5-8 5:17:7
487,2,187,125,2011-11-14 13:17:44
488,2,188,135,2011-9-8 8:39:35
489,2,189,166,2013-1-6 17:24:44
490,2,190,105,2013-9-15 6:28:45
491,2,191,141,2013-9-16 2:26:52
492,2,192,184,2011-12-12 10:45:58
493,2,193,165,2014-2-26 13:15:48
494,2,194,118,2012-12-17 7:18:51
495,2,195,186,2012-11-11 10:21:15
496,2,196,131,2012-11-5 6:56:32
497,2,197,105,2013-3-14 3:50:16
498,2,198,200,2012-12-16 16:2:4
499,2,199,166,2011-4-12 2:15:26
500,2,200,145,2013-4-26 19:1:53
501,2,201,157,2010-2-24 7:22:50
502,2,202,148,2010-11-23 7:29:50
503,2,203,172,2014-11-25 0:47:59
504,2,204,192,2011-9-28 20:56:43
505,2,205,126,2011-12-16 0:10:26
506,2,206,191,2013-6-8 6:43:56
507,2,207,116,2011-4-15 15:26:51
508,2,208,104,2014-12-25 2:45:43
509,2,209,179,2012-6-26 3:17:51
510,2,210,142,2012-3-4 8:14:9
511,2,211,160,2013-10-15 10:39:40
512,2,212,167,2013-1-24 2:36:57
513,2,213,168,2013-8-25 20:21:9
514,2,214,187,2014-2-28 19:5:42
515,2,215,177,2013-11-9 17:40:24
516,2,216,156,2012-4-6 0:8:20
517,2,217,107,2012-10-3 12:47:33
518,2,218,174,2011-4-6 22:41:47
519,2,219,126,2011-8-11 0:34:17
520,2,220,196,2012-9-21 1:5:43
521,2,221,190,2011-4-13 9:54:35
522,2,222,112,2012-7-17 20:15:53
523,2,223,133,2014-3-18 10:52:52
524,2,224,140,2012-2-22 1:31:52
525,2,225,178,2013-7-1 6:41:31
526,2,226,112,2012-2-2 5:21:31
527,2,227,184,2013-2-25 18:11:8
528,2,228,180,2014-12-22 0:23:28
529,2,229,184,2014-7-12 11:40:47
530,2,230,108,2013-4-2 23:36:28
531,2,231,190,2012-9-9 2:36:53
532,2,232,145,2014-10-8 17:51:43
533,2,233,126,2012-2-11 4:47:17
534,2,234,189,2011-10-15 12:0:18
535,2,235,133,2013-5-12 20:37:41
536,2,236,195,2010-10-16 23:30:10
537,2,237,168,2014-2-4 11:53:13
538,2,238,180,2012-5-17 16:6:20
539,2,239,176,2014-10-14 11:33:44
540,2,240,115,2013-9-19 11:4:6
541,2,241,126,2013-10-13 1:38:32
542,2,242,174,2014-2-24 1:17:15
543,2,243,124,2013-2-5 19:4:42
544,2,244,177,2011-9-3 6:57:40
545,2,245,171,2011-11-18 20:30:56
546,2,246,135,2010-2-17 8:47:58
547,2,247,132,2012-1-3 0:2:26
548,2,248,193,2013-2-27 5:59:55
549,2,249,176,2012-8-5 14:49:4
550,2,250,156,2011-2-25 15:8:52
551,2,251,152,2013-3-2 6:41:33
552,2,252,129,2014-8-3 22:12:29
553,2,253,191,2010-3-16 5:19:47
554,2,254,165,2013-5-11 1:32:27
555,2,255,179,2010-11-4 22:7:21
556,2,256,129,2011-6-13 4:54:59
557,2,257,181,2012-11-16 12:7:4
558,2,258,196,2010-10-6 22:5:26
559,2,259,184,2014-5-6 17:46:1
560,2,260,168,2014-6-6 8:1:2
561,2,261,150,2014-11-19 20:8:16
562,2,262,107,2011-4-19 13:33:50
563,2,263,175,2014-7-13 15:51:30
564,2,264,132,2013-11-11 4:5:52
565,2,265,113,2010-3-15 4:39:31
566,2,266,100,2010-10-28 11:24:39
567,2,267,172,2011-11-15 20:54:9
568,2,268,177,2011-6-18 23:38:30
569,2,269,145,2012-8-17 12:57:33
570,2,270,173,2013-3-14 3:15:2
571,2,271,184,2010-5-19 0:55:39
572,2,272,123,2013-4-21 20:39:25
573,2,273,160,2013-2-16 11:20:19
574,2,274,139,2010-11-22 18:53:38
575,2,275,156,2012-9-3 21:17:38
576,2,276,143,2013-3-11 6:31:12
577,2,277,152,2013-12-11 21:54:38
578,2,278,108,2014-12-5 18:21:57
579,2,279,128,2013-7-24 15:59:3
580,2,280,182,2011-4-13 6:39:20
581,2,281,154,2012-5-10 13:23:52
582,2,282,164,2014-5-6 14:57:1
583,2,283,180,2014-10-9 7:10:3
584,2,284,108,2014-7-6 10:6:59
585,2,285,140,2013-10-9 21:2:53
586,2,286,112,2012-8-21 8:44:3
587,2,287,146,2010-7-11 18:27:11
588,2,288,112,2014-9-28 0:14:44
589,2,289,182,2011-4-7 14:48:21
590,2,290,192,2011-9-16 17:5:33
591,2,291,128,2014-3-3 14:45:17
592,2,292,121,2011-9-19 3:51:52
593,2,293,171,2010-12-24 10:34:55
594,2,294,148,2011-9-17 15:6:25
595,2,295,122,2012-7-6 2:3:35
596,2,296,196,2011-10-22 15:29:39
597,2,297,198,2012-8-1 0:37:18
598,2,298,150,2014-3-22 22:51:14
599,2,299,162,2012-5-14 1:54:4
600,2,300,148,2011-5-6 12:41:28
601,3,1,6075,2014-5-18 12:10:11
602,3,2,7248,2013-10-14 9:33:56
603,3,3,2074,2010-3-17 21:25:52
604,3,4,5213,2012-10-11 11:10:4
605,3,5,7906,2011-6-21 14:34:0
606,3,6,3881,2013-4-22 11:32:15
607,3,7,2307,2013-3-4 5:4:33
608,3,8,5647,2010-1-1 16:14:42
609,3,9,7125,2014-1-22 7:25:27
610,3,10,4691,2013-12-12 7:44:52
611,3,11,6670,2011-8-22 14:58:33
612,3,12,2925,2014-7-4 3:18:57
613,3,13,2640,2010-8-10 13:1:34
614,3,14,7846,2010-10-17 4:52:7
615,3,15,6265,2010-4-23 11:17:37
616,3,16,2652,2013-1-16 0:59:22
617,3,17,5302,2010-7-25 22:37:42
618,3,18,5100,2013-10-6 16:50:28
619,3,19,6310,2013-9-24 19:18:11
620,3,20,6359,2012-3-15 18:37:50
621,3,21,7826,2012-10-28 18:42:11
622,3,22,2529,2014-11-24 13:5:11
623,3,23,4127,2013-5-16 23:52:11
624,3,24,5667,2014-7-17 14:35:38
625,3,25,2845,2010-6-5 10:25:27
626,3,26,4891,2012-8-21 9:47:6
627,3,27,6952,2011-2-20 10:24:39
628,3,28,4052,2013-4-7 6:11:49
629,3,29,2204,2012-9-7 2:52:4
630,3,30,7907,2013-9-19 23:51:13
631,3,31,7542,2013-9-22 0:17:26
632,3,32,4726,2012-4-20 3:36:50
633,3,33,2496,2010-12-16 0:5:57
634,3,34,7561,2014-1-5 22:37:29
635,3,35,4366,2012-9-6 14:8:53
636,3,36,5067,2010-12-3 0:44:0
637,3,37,4520,2010-3-17 17:32:59
638,3,38,6498,2014-10-6 16:1:50
639,3,39,6629,2011-11-27 20:20:1
640,3,40,3340,2011-6-1 21:46:15
641,3,41,3472,2012-1-5 2:40:5
642,3,42,4840,2012-12-27 14:38:39
643,3,43,4697,2014-7-20 20:6:18
644,3,44,4334,2012-11-28 5:24:40
645,3,45,3120,2010-7-12 18:26:23
646,3,46,2103,2011-9-20 15:22:27
647,3,47,4494,2011-5-11 4:29:2
648,3,48,3403,2013-9-4 7:22:8
649,3,49,7476,2011-11-6 4:45:18
650,3,50,3875,2012-2-11 17:51:37
651,3,51,6885,2012-8-24 11:29:49
652,3,52,5851,2011-7-20 1:25:6
653,3,53,2131,2010-4-9 1:57:44
654,3,54,5122,2014-9-9 7:12:33
655,3,55,7273,2011-12-17 10:21:57
656,3,56,3448,2012-4-18 1:24:26
657,3,57,6540,2012-7-6 11:10:20
658,3,58,3140,2014-1-2 17:28:2
659,3,59,3956,2013-9-18 9:57:35
660,3,60,4807,2011-6-16 17:1:30
661,3,61,6750,2013-10-10 5:21:14
662,3,62,4817,2010-2-22 8:48:21
663,3,63,2509,2011-2-21 14:26:52
664,3,64,6275,2011-3-17 7:43:15
665,3,65,6243,2012-9-10 20:17:15
666,3,66,3722,2013-4-9 20:44:33
667,3,67,3942,2010-11-23 7:15:16
668,3,68,7486,2010-1-2 22:35:55
669,3,69,4177,2010-3-2 18:51:9
670,3,70,4639,2011-5-3 2:25:6
671,3,71,4378,2013-3-13 9:5:3
672,3,72,7454,2014-8-2 11:12:34
673,3,73,2243,2013-5-8 18:27:59
674,3,74,6163,2011-5-4 5:11:4
675,3,75,3256,2011-10-8 3:11:23
676,3,76,4487,2012-1-19 17:57:35
677,3,77,5550,2010-4-9 13:8:39
678,3,78,7180,2010-3-27 10:2:24
679,3,79,4642,2012-11-11 12:2:27
680,3,80,5599,2010-6-6 13:13:7
681,3,81,4790,2011-7-3 12:47:38
682,3,82,4712,2012-9-18 12:37:45
683,3,83,6031,2012-12-10 22:53:24
684,3,84,6528,2014-10-26 14:18:8
685,3,85,3580,2010-12-24 4:50:3
686,3,86,3592,2012-9-16 3:57:24
687,3,87,4905,2013-6-9 11:18:38
688,3,88,6864,2012-11-2 0:59:15
689,3,89,3565,2010-5-20 18:26:17
690,3,90,3329,2010-12-1 1:2:20
691,3,91,3261,2014-4-25 13:15:5
692,3,92,6745,2014-3-10 15:23:50
693,3,93,7793,2013-10-1 21:32:14
694,3,94,4880,2014-12-2 18:12:20
695,3,95,7216,2012-6-19 8:52:9
696,3,96,7703,2012-8-26 23:0:14
697,3,97,2623,2014-12-5 11:19:20
698,3,98,2148,2012-4-13 2:46:44
699,3,99,5152,2014-7-19 18:27:20
700,3,100,2006,2010-6-1 9:2:21
701,3,101,7700,2012-8-26 1:41:10
702,3,102,5495,2012-2-21 18:15:37
703,3,103,4110,2013-10-4 10:20:29
704,3,104,5278,2010-5-24 12:35:19
705,3,105,2213,2014-8-11 22:52:17
706,3,106,7202,2014-2-6 5:1:6
707,3,107,5370,2012-1-27 9:37:45
708,3,108,7504,2011-1-15 1:24:24
709,3,109,6693,2010-9-1 18:32:15
710,3,110,4769,2014-5-4 11:3:55
711,3,111,4291,2010-10-3 22:24:39
712,3,112,3815,2012-10-28 19:27:20
713,3,113,6468,2014-3-26 3:48:16
714,3,114,2615,2013-4-15 18:9:10
715,3,115,3997,2012-8-21 3:38:2
716,3,116,6407,2013-2-10 4:49:42
717,3,117,2220,2014-11-28 18:7:22
718,3,118,6137,2010-2-25 18:50:13
719,3,119,4443,2011-12-23 10:59:27
720,3,120,5591,2010-3-21 7:58:32
721,3,121,2267,2011-2-12 0:1:8
722,3,122,2017,2013-10-19 12:41:55
723,3,123,5661,2011-9-26 6:30:16
724,3,124,6872,2013-3-15 15:48:30
725,3,125,7656,2013-4-24 7:12:29
726,3,126,6232,2011-10-14 1:25:52
727,3,127,7778,2013-11-24 10:29:6
728,3,128,7738,2013-11-24 21:32:42
729,3,129,2098,2012-6-15 22:28:7
730,3,130,7937,2012-8-18 3:31:20
731,3,131,4980,2013-12-19 3:53:24
732,3,132,4306,2012-2-10 22:55:39
733,3,133,5751,2013-10-28 5:21:14
734,3,134,6104,2011-9-7 0:43:29
735,3,135,3182,2011-11-13 16:34:35
736,3,136,7221,2012-7-9 16:11:26
737,3,137,2669,2010-7-8 4:14:45
738,3,138,6838,2013-5-3 18:10:26
739,3,139,3307,2011-4-21 19:19:9
740,3,140,4177,2010-4-19 17:37:12
741,3,141,7202,2010-3-19 17:0:41
742,3,142,3523,2013-9-5 1:50:39
743,3,143,7782,2010-7-18 17:54:59
744,3,144,2791,2011-3-19 15:29:50
745,3,145,4182,2010-11-24 3:11:15
746,3,146,3386,2013-6-19 6:30:41
747,3,147,6994,2011-12-15 3:39:5
748,3,148,6746,2013-12-26 2:39:33
749,3,149,5557,2011-2-22 23:56:13
750,3,150,7458,2010-6-13 14:18:37
751,3,151,7487,2014-6-26 21:24:17
752,3,152,5685,2011-6-15 15:8:29
753,3,153,6133,2011-10-16 21:42:56
754,3,154,3235,2012-9-25 13:27:26
755,3,155,3123,2014-7-24 10:29:8
756,3,156,7183,2010-2-28 0:47:6
757,3,157,2837,2014-10-22 12:55:11
758,3,158,5052,2013-9-3 8:50:39
759,3,159,6575,2014-7-18 1:1:49
760,3,160,5157,2010-11-26 19:1:26
761,3,161,3664,2014-12-18 19:14:28
762,3,162,6511,2014-3-13 5:9:24
763,3,163,7209,2011-2-24 5:13:47
764,3,164,2936,2011-5-10 1:13:2
765,3,165,2050,2011-4-18 10:54:11
766,3,166,4659,2012-6-5 1:51:19
767,3,167,6244,2014-7-27 6:45:17
768,3,168,5359,2012-5-3 23:23:32
769,3,169,2892,2013-1-21 7:1:13
770,3,170,3821,2011-1-10 7:46:4
771,3,171,4753,2013-7-9 5:3:39
772,3,172,5681,2010-7-26 5:5:47
773,3,173,6891,2013-12-20 23:15:32
774,3,174,5629,2010-1-12 18:39:3
775,3,175,5853,2011-11-11 0:24:42
776,3,176,7842,2013-2-10 5:57:54
777,3,177,6318,2012-9-26 12:2:23
778,3,178,4663,2013-3-4 19:31:54
779,3,179,7452,2010-5-6 19:24:58
780,3,180,5993,2011-10-18 15:11:55
781,3,181,7973,2011-7-7 0:16:19
782,3,182,4631,2013-7-8 20:3:57
783,3,183,6117,2014-3-28 19:29:3
784,3,184,6409,2014-2-15 4:3:32
785,3,185,6786,2014-10-1 22:58:23
786,3,186,4084,2012-8-19 15:3:2
787,3,187,3128,2013-11-1 0:58:1
788,3,188,2361,2012-2-2 3:49:2
789,3,189,7349,2014-3-1 9:10:58
790,3,190,3928,2011-4-5 0:50:24
791,3,191,2857,2013-1-24 19:45:45
792,3,192,6883,2014-10-3 14:45:22
793,3,193,2476,2012-10-11 5:8:42
794,3,194,4053,2012-8-9 11:23:31
795,3,195,2460,2011-6-26 12:6:4
796,3,196,3854,2012-7-15 23:47:47
797,3,197,6583,2010-9-1 7:29:33
798,3,198,2057,2012-6-8 23:52:9
799,3,199,4012,2013-6-22 19:30:59
800,3,200,7219,2014-3-9 14:44:35
801,3,201,4041,2011-9-2 16:30:9
802,3,202,5425,2010-12-10 11:24:25
803,3,203,5905,2012-11-15 18:11:31
804,3,204,2619,2014-12-9 3:54:42
805,3,205,2633,2014-3-1 22:1:12
806,3,206,2652,2014-5-18 21:30:26
807,3,207,4524,2010-12-3 18:13:21
808,3,208,6176,2010-3-21 4:16:9
809,3,209,6095,2012-10-25 22:30:55
810,3,210,5803,2010-1-18 11:29:18
811,3,211,2231,2011-1-24 12:43:7
812,3,212,4571,2014-6-21 21:27:18
813,3,213,7724,2011-5-20 2:30:25
814,3,214,2468,2011-11-26 12:31:9
815,3,215,7107,2010-4-11 8:11:32
816,3,216,4522,2011-9-4 13:59:18
817,3,217,7136,2010-3-8 23:12:12
818,3,218,5495,2013-4-2 21:51:32
819,3,219,6734,2011-9-26 8:15:39
820,3,220,3743,2013-5-7 18:47:1
821,3,221,3311,2011-11-18 7:18:35
822,3,222,4958,2013-9-18 8:39:45
823,3,223,3268,2014-7-14 0:54:24
824,3,224,3338,2012-5-27 0:20:14
825,3,225,2858,2013-1-16 22:48:21
826,3,226,2808,2014-1-26 6:33:22
827,3,227,4723,2014-12-20 3:38:50
828,3,228,3084,2014-1-18 12:1:31
829,3,229,7790,2010-12-6 19:7:55
830,3,230,5511,2012-9-4 2:30:8
831,3,231,4399,2012-7-10 23:49:16
832,3,232,2234,2012-1-4 11:49:9
833,3,233,2567,2014-12-27 10:23:30
834,3,234,4522,2013-9-27 6:22:7
835,3,235,2305,2011-4-25 2:8:52
836,3,236,4189,2013-12-28 14:51:13
837,3,237,4766,2010-1-22 1:1:21
838,3,238,3039,2014-2-4 16:13:9
839,3,239,3536,2010-11-25 6:22:47
840,3,240,5631,2011-3-1 8:8:6
841,3,241,5546,2012-3-16 1:43:51
842,3,242,2142,2010-12-26 4:16:20
843,3,243,7015,2014-3-21 21:54:55
844,3,244,6561,2014-7-15 10:43:15
845,3,245,2750,2014-5-19 23:3:39
846,3,246,4968,2014-5-23 19:55:12
847,3,247,6040,2014-8-13 9:23:7
848,3,248,2647,2012-4-27 6:39:30
849,3,249,5412,2011-5-22 21:29:10
850,3,250,4034,2012-5-19 21:0:55
851,3,251,4568,2013-8-2 17:12:18
852,3,252,5674,2012-1-14 12:34:1
853,3,253,7138,2011-6-21 10:4:26
854,3,254,5308,2010-4-27 14:47:49
855,3,255,7171,2011-1-16 20:4:49
856,3,256,7831,2013-10-2 8:8:46
857,3,257,6524,2014-12-7 0:27:10
858,3,258,4685,2013-6-26 13:50:48
859,3,259,4539,2014-5-17 6:18:54
860,3,260,5320,2011-12-16 6:39:43
861,3,261,3494,2010-1-2 16:42:49
862,3,262,2810,2011-11-18 15:6:10
863,3,263,3194,2013-12-22 10:38:23
864,3,264,6518,2011-6-28 14:59:30
865,3,265,6451,2014-11-26 9:37:31
866,3,266,6853,2012-10-23 23:0:46
867,3,267,4213,2013-11-9 0:16:13
868,3,268,3133,2014-8-4 10:8:38
869,3,269,2752,2011-11-10 23:45:24
870,3,270,7404,2014-7-22 10:20:21
871,3,271,5195,2013-9-8 14:53:42
872,3,272,6273,2013-8-17 15:7:1
873,3,273,5132,2012-10-17 4:17:50
874,3,274,6044,2010-8-2 17:7:55
875,3,275,6127,2011-6-20 1:39:38
876,3,276,4819,2014-2-17 11:47:17
877,3,277,4876,2014-3-4 10:35:16
878,3,278,3912,2011-2-20 16:20:52
879,3,279,6711,2010-4-11 1:34:5
880,3,280,3038,2010-11-3 2:47:56
881,3,281,7954,2014-12-8 9:16:24
882,3,282,5726,2011-7-19 20:18:44
883,3,283,7004,2012-2-20 10:52:1
884,3,284,6518,2012-9-10 13:32:40
885,3,285,4107,2013-12-21 19:10:32
886,3,286,2786,2011-12-21 21:19:33
887,3,287,4656,2014-10-15 17:6:1
888,3,288,5472,2011-7-2 3:43:41
889,3,289,6189,2011-11-7 21:4:12
890,3,290,4962,2014-6-3 3:22:36
891,3,291,4962,2014-1-3 22:31:38
892,3,292,3927,2012-6-1 6:30:44
893,3,293,4789,2013-2-8 7:18:19
894,3,294,6163,2010-11-1 2:37:57
895,3,295,7246,2011-3-10 18:7:33
896,3,296,6337,2012-7-11 6:15:29
897,3,297,4995,2014-5-13 6:14:22
898,3,298,3091,2011-7-19 15:15:22
899,3,299,5254,2011-9-4 3:3:50
900,3,300,2257,2010-11-13 6:37:37
